{"success":true,"total_entries":1759,"total_pages":88,"page":1,"data":[{"id":696,"date":"1990-04-05","duration":8831401,"incomplete":false,"sbd":true,"remastered":false,"tags":[{"id":1,"name":"SBD","priority":1,"group":"Audio","color":"#888888","notes":null}],"tour_id":8,"venue":{"id":339,"slug":"j-j-mccabe-s","name":"J.J. McCabe's","other_names":[],"latitude":40.014986,"longitude":-105.270546,"shows_count":1,"location":"Boulder, CO","updated_at":"2013-03-24T01:17:40Z"},"venue_name":"J.J. McCabe's","taper_notes":"04-05-90 J.J. McCabes, Boulder, CO\r\n\r\nSBD \u003e Cass/0 \u003e DAT \u003e CDR \u003e EAC \u003e SHN\r\nMocking Tree #1\r\n\r\nSeeded by Ben Mohr (bmohr@udel.edu)\r\ncarini.etree.org\r\n\r\n--------------\r\nDisc 1 (73:08)\r\n--------------\r\nSet 1:\r\n1. Possum (6:47)\r\n2. Ya Mar (7:06)\r\n3. David Bowie (11:22)\r\n4. Carolina (2:00)\r\n5. Oh Kee Pa Ceremony \u003e (1:45)\r\n6. Suzy Greenberg (5:19)\r\n7. You Enjoy Myself (12:39)\r\n8. Lizards (10:12)\r\n9. Fire (4:19)\r\nSet 2:\r\n10. Reba (11:39)\r\n\r\n--------------\r\nDisc 2 (73:42)\r\n--------------\r\nSet 2 cont:\r\n1. Uncle Pen (5:13)\r\n2. Jesus Just Left Chicago (8:09)\r\n3. AC/DC Bag (6:22)\r\n4. Donna Lee (3:23)\r\n5. Tweezer (9:59)\r\n6. Fee (5:13)\r\n7. Cavern (4:58)\r\n8. Mike's Song -\u003e (6:22)\r\n9. I Am Hydrogen -\u003e (2:19)\r\n10. Weekapaug Groove (7:34)\r\n11. If I Only Had a Brain (3:09)\r\n12. Contact (6:20)\r\nEncore:\r\n13. Golgi Apparatus (4:41)\r\n\r\nNotes:\r\n--tape flip in YEM at 11:51 (missing couple second transition into vocal jam)\r\n--tape flip between AC/DC Bag and Donna Lee\r\n--tape flip in Weekapaug Groove at 6:27 (no music missing)\r\nFixes:\r\n--fixed click at track boundary of YEM and Lizards\r\n--smoothed out static at 0:08 in I Am Hydrogen","likes_count":5,"tracks":[{"id":14073,"show_id":696,"show_date":"1990-04-05","venue_name":"J.J. McCabe's","venue_location":"Boulder, CO","title":"Possum","position":1,"duration":408033,"jam_starts_at_second":null,"set":"1","set_name":"Set 1","likes_count":1,"slug":"possum","tags":[{"id":1,"name":"SBD","priority":1,"group":"Audio","color":"#888888","notes":null,"transcript":null,"starts_at_second":null,"ends_at_second":null}],"mp3":"https://phish.in/audio/000/014/073/14073.mp3","waveform_image":"https://phish.in/audio/000/014/073/waveform-14073.png","song_ids":[595],"updated_at":"2023-10-27T22:33:16Z"},{"id":14074,"show_id":696,"show_date":"1990-04-05","venue_name":"J.J. McCabe's","venue_location":"Boulder, CO","title":"Ya Mar","position":2,"duration":427024,"jam_starts_at_second":null,"set":"1","set_name":"Set 1","likes_count":0,"slug":"ya-mar","tags":[{"id":1,"name":"SBD","priority":1,"group":"Audio","color":"#888888","notes":null,"transcript":null,"starts_at_second":null,"ends_at_second":null},{"id":17,"name":"Tease","priority":15,"group":"Song Content","color":"#888888","notes":"Theme from Bonanza by Ray Evans and\n Jay Livingston","transcript":null,"starts_at_second":306,"ends_at_second":null}],"mp3":"https://phish.in/audio/000/014/074/14074.mp3","waveform_image":"https://phish.in/audio/000/014/074/waveform-14074.png","song_ids":[873],"updated_at":"2023-10-27T22:33:16Z"}],"updated_at":"2018-12-21T08:10:20Z"}]}