{"success":true,"total_entries":35069,"total_pages":1754,"page":1,"data":[{"id":4270,"show_id":217,"show_date":"1994-10-07","venue_name":"Stabler Arena, Lehigh University","venue_location":"Bethlehem, PA","title":"Maze","position":10,"duration":673672,"jam_starts_at_second":null,"set":"2","set_name":"Set 2","likes_count":4,"slug":"maze","tags":[],"mp3":"https://phish.in/audio/000/004/270/4270.mp3","waveform_image":"https://phish.in/audio/000/004/270/waveform-4270.png","song_ids":[486],"updated_at":"2023-10-27T22:30:27Z"},{"id":6693,"show_id":323,"show_date":"1993-04-09","venue_name":"State Theatre","venue_location":"Minneapolis, MN","title":"Stash","position":4,"duration":675971,"jam_starts_at_second":null,"set":"1","set_name":"Set 1","likes_count":1,"slug":"stash","tags":[{"id":1,"name":"SBD","priority":1,"group":"Audio","color":"#888888","notes":null,"transcript":null,"starts_at_second":null,"ends_at_second":null},{"id":4,"name":"Jamcharts","priority":4,"group":"Curated Selections","color":"#888888","notes":"Several minutes of growly, percussive, dissonant, and atypical jamming.","transcript":null,"starts_at_second":null,"ends_at_second":null}],"mp3":"https://phish.in/audio/000/006/693/6693.mp3","waveform_image":"https://phish.in/audio/000/006/693/waveform-6693.png","song_ids":[728],"updated_at":"2023-10-27T22:31:08Z"},{"id":16123,"show_id":803,"show_date":"1996-10-31","venue_name":"The Omni","venue_location":"Atlanta, GA","title":"Once in a Lifetime","position":14,"duration":308846,"jam_starts_at_second":null,"set":"2","set_name":"Set 2","likes_count":13,"slug":"once-in-a-lifetime","tags":[{"id":5,"name":"Costume","priority":5,"group":"Set Content","color":"#888888","notes":"Remain In Light by Talking Heads","transcript":null,"starts_at_second":null,"ends_at_second":null},{"id":8,"name":"Debut","priority":7,"group":"Song Content","color":"#888888","notes":null,"transcript":null,"starts_at_second":null,"ends_at_second":null},{"id":15,"name":"Guest","priority":13,"group":"Instrumentation","color":"#888888","notes":"Karl Perazzo on percussion, Dave Grippo on saxophone, and Gary Gazaway on trumpet","transcript":null,"starts_at_second":null,"ends_at_second":null}],"mp3":"https://phish.in/audio/000/016/123/16123.mp3","waveform_image":"https://phish.in/audio/000/016/123/waveform-16123.png","song_ids":[575],"updated_at":"2023-10-27T22:33:48Z"},{"id":18477,"show_id":932,"show_date":"1998-08-15","venue_name":"Loring Commerce Center at Loring Air Force Base","venue_location":"Limestone, ME","title":"Tweezer Reprise","position":30,"duration":543112,"jam_starts_at_second":null,"set":"E","set_name":"Encore","likes_count":1,"slug":"tweezer-reprise","tags":[],"mp3":"https://phish.in/audio/000/018/477/18477.mp3","waveform_image":"https://phish.in/audio/000/018/477/waveform-18477.png","song_ids":[804],"updated_at":"2023-10-27T22:34:25Z"},{"id":6694,"show_id":323,"show_date":"1993-04-09","venue_name":"State Theatre","venue_location":"Minneapolis, MN","title":"The Horse","position":5,"duration":150962,"jam_starts_at_second":null,"set":"1","set_name":"Set 1","likes_count":0,"slug":"the-horse","tags":[{"id":1,"name":"SBD","priority":1,"group":"Audio","color":"#888888","notes":null,"transcript":null,"starts_at_second":null,"ends_at_second":null},{"id":11,"name":"Acoustic","priority":9,"group":"Instrumentation","color":"#888888","notes":null,"transcript":null,"starts_at_second":null,"ends_at_second":null},{"id":13,"name":"Alt Rig","priority":11,"group":"Instrumentation","color":"#888888","notes":"Trey on acoustic guitar","transcript":null,"starts_at_second":null,"ends_at_second":null}],"mp3":"https://phish.in/audio/000/006/694/6694.mp3","waveform_image":"https://phish.in/audio/000/006/694/waveform-6694.png","song_ids":[355],"updated_at":"2023-10-27T22:31:08Z"},{"id":12680,"show_id":624,"show_date":"1995-06-29","venue_name":"Nikon at Jones Beach Theater","venue_location":"Wantagh, NY","title":"Silent in the Morning","position":4,"duration":305450,"jam_starts_at_second":null,"set":"1","set_name":"Set 1","likes_count":0,"slug":"silent-in-the-morning","tags":[],"mp3":"https://phish.in/audio/000/012/680/12680.mp3","waveform_image":"https://phish.in/audio/000/012/680/waveform-12680.png","song_ids":[687],"updated_at":"2023-10-27T22:32:50Z"},{"id":13816,"show_id":682,"show_date":"1990-02-22","venue_name":"Mabel Brown Room, Keene State College","venue_location":"Keene, NH","title":"The Oh Kee Pa Ceremony","position":5,"duration":100101,"jam_starts_at_second":null,"set":"1","set_name":"Set 1","likes_count":0,"slug":"the-oh-kee-pa-ceremony","tags":[{"id":1,"name":"SBD","priority":1,"group":"Audio","color":"#888888","notes":null,"transcript":null,"starts_at_second":null,"ends_at_second":null}],"mp3":"https://phish.in/audio/000/013/816/13816.mp3","waveform_image":"https://phish.in/audio/000/013/816/waveform-13816.png","song_ids":[566],"updated_at":"2023-10-27T22:33:10Z"},{"id":18545,"show_id":936,"show_date":"1998-10-17","venue_name":"Shoreline Amphitheatre","venue_location":"Mountain View, CA","title":"Wading in the Velvet Sea","position":8,"duration":331076,"jam_starts_at_second":null,"set":"1","set_name":"Set 1","likes_count":2,"slug":"wading-in-the-velvet-sea","tags":[{"id":11,"name":"Acoustic","priority":9,"group":"Instrumentation","color":"#888888","notes":null,"transcript":null,"starts_at_second":null,"ends_at_second":null}],"mp3":"https://phish.in/audio/000/018/545/18545.mp3","waveform_image":"https://phish.in/audio/000/018/545/waveform-18545.png","song_ids":[821],"updated_at":"2023-10-27T22:34:27Z"},{"id":19595,"show_id":994,"show_date":"1999-08-01","venue_name":"Naeba Ski Resort","venue_location":"Niigata, Japan","title":"Split Open and Melt","position":7,"duration":822936,"jam_starts_at_second":null,"set":"1","set_name":"Set 1","likes_count":8,"slug":"split-open-and-melt","tags":[{"id":1,"name":"SBD","priority":1,"group":"Audio","color":"#888888","notes":null,"transcript":null,"starts_at_second":null,"ends_at_second":null},{"id":4,"name":"Jamcharts","priority":4,"group":"Curated Selections","color":"#888888","notes":"The jam veers away from \"SOAM\" at about 8:30 into a quiet, thought provoking direction before returning to the standard.","transcript":null,"starts_at_second":null,"ends_at_second":null}],"mp3":"https://phish.in/audio/000/019/595/19595.mp3","waveform_image":"https://phish.in/audio/000/019/595/waveform-19595.png","song_ids":[717],"updated_at":"2023-10-27T22:34:43Z"},{"id":20045,"show_id":1018,"show_date":"1999-12-07","venue_name":"Cumberland County Civic Center","venue_location":"Portland, ME","title":"Jennifer Dances","position":10,"duration":387840,"jam_starts_at_second":null,"set":"2","set_name":"Set 2","likes_count":2,"slug":"jennifer-dances","tags":[],"mp3":"https://phish.in/audio/000/020/045/20045.mp3","waveform_image":"https://phish.in/audio/000/020/045/waveform-20045.png","song_ids":[413],"updated_at":"2023-10-27T22:34:51Z"},{"id":21084,"show_id":1082,"show_date":"2003-11-29","venue_name":"Wachovia Spectrum","venue_location":"Philadelphia, PA","title":"Limb By Limb","position":3,"duration":569051,"jam_starts_at_second":null,"set":"1","set_name":"Set 1","likes_count":1,"slug":"limb-by-limb","tags":[],"mp3":"https://phish.in/audio/000/021/084/21084.mp3","waveform_image":"https://phish.in/audio/000/021/084/waveform-21084.png","song_ids":[449],"updated_at":"2023-10-27T22:35:09Z"},{"id":33864,"show_id":2004,"show_date":"2019-07-10","venue_name":"Mohegan Sun Arena","venue_location":"Uncasville, CT","title":"Chalk Dust Torture","position":13,"duration":685688,"jam_starts_at_second":null,"set":"2","set_name":"Set 2","likes_count":5,"slug":"chalk-dust-torture","tags":[{"id":17,"name":"Tease","priority":15,"group":"Song Content","color":"#888888","notes":"Dave's Energy Guide","transcript":null,"starts_at_second":null,"ends_at_second":null}],"mp3":"https://phish.in/audio/000/033/864/33864.mp3","waveform_image":"https://phish.in/audio/000/033/864/waveform-33864.png","song_ids":[144],"updated_at":"2023-10-27T22:38:39Z"},{"id":18624,"show_id":942,"show_date":"1998-10-31","venue_name":"Thomas \u0026 Mack Center","venue_location":"Las Vegas, NV","title":"Head Held High","position":16,"duration":257306,"jam_starts_at_second":null,"set":"2","set_name":"Set 2","likes_count":4,"slug":"head-held-high","tags":[{"id":5,"name":"Costume","priority":5,"group":"Set Content","color":"#888888","notes":"Loaded by The Velvet Underground ","transcript":null,"starts_at_second":null,"ends_at_second":null},{"id":8,"name":"Debut","priority":7,"group":"Song Content","color":"#888888","notes":null,"transcript":null,"starts_at_second":null,"ends_at_second":null}],"mp3":"https://phish.in/audio/000/018/624/18624.mp3","waveform_image":"https://phish.in/audio/000/018/624/waveform-18624.png","song_ids":[333],"updated_at":"2023-10-27T22:34:28Z"},{"id":34932,"show_id":2055,"show_date":"2021-09-04","venue_name":"Dick's Sporting Goods Park","venue_location":"Commerce City, CO","title":"Blaze On","position":5,"duration":923925,"jam_starts_at_second":null,"set":"1","set_name":"Set 1","likes_count":8,"slug":"blaze-on","tags":[{"id":12,"name":"Alt Lyric","priority":10,"group":"Song Content","color":"#888888","notes":"\"We'll be dancing here at Dick's\"","transcript":null,"starts_at_second":162,"ends_at_second":164}],"mp3":"https://phish.in/audio/000/034/932/34932.mp3","waveform_image":"https://phish.in/audio/000/034/932/waveform-34932.png","song_ids":[939],"updated_at":"2023-10-27T22:38:56Z"},{"id":4275,"show_id":217,"show_date":"1994-10-07","venue_name":"Stabler Arena, Lehigh University","venue_location":"Bethlehem, PA","title":"Scent of a Mule","position":15,"duration":513959,"jam_starts_at_second":null,"set":"2","set_name":"Set 2","likes_count":3,"slug":"scent-of-a-mule","tags":[],"mp3":"https://phish.in/audio/000/004/275/4275.mp3","waveform_image":"https://phish.in/audio/000/004/275/waveform-4275.png","song_ids":[666],"updated_at":"2023-10-27T22:30:27Z"},{"id":10468,"show_id":506,"show_date":"1991-11-08","venue_name":"Ivory Tusk","venue_location":"Tuscaloosa, AL","title":"Stash","position":4,"duration":516676,"jam_starts_at_second":null,"set":"1","set_name":"Set 1","likes_count":1,"slug":"stash","tags":[],"mp3":"https://phish.in/audio/000/010/468/10468.mp3","waveform_image":"https://phish.in/audio/000/010/468/waveform-10468.png","song_ids":[728],"updated_at":"2023-10-27T22:32:13Z"},{"id":23952,"show_id":1227,"show_date":"2011-06-01","venue_name":"PNC Bank Arts Center","venue_location":"Holmdel, NJ","title":"Backwards Down the Number Line","position":17,"duration":584411,"jam_starts_at_second":null,"set":"2","set_name":"Set 2","likes_count":2,"slug":"backwards-down-the-number-line","tags":[{"id":4,"name":"Jamcharts","priority":4,"group":"Curated Selections","color":"#888888","notes":"Fiery and rocking \"Type I\" version with a nice big peak.","transcript":null,"starts_at_second":null,"ends_at_second":null},{"id":17,"name":"Tease","priority":15,"group":"Song Content","color":"#888888","notes":"No Quarter by Led Zeppelin","transcript":null,"starts_at_second":565,"ends_at_second":null}],"mp3":"https://phish.in/audio/000/023/952/23952.mp3","waveform_image":"https://phish.in/audio/000/023/952/waveform-23952.png","song_ids":[63],"updated_at":"2023-10-27T22:35:58Z"},{"id":12061,"show_id":592,"show_date":"1995-12-11","venue_name":"Cumberland County Civic Center","venue_location":"Portland, ME","title":"Llama","position":9,"duration":264699,"jam_starts_at_second":null,"set":"1","set_name":"Set 1","likes_count":2,"slug":"llama","tags":[{"id":3,"name":"RMSTR","priority":2,"group":"Audio","color":"#888888","notes":null,"transcript":null,"starts_at_second":null,"ends_at_second":null}],"mp3":"https://phish.in/audio/000/012/061/12061.mp3","waveform_image":"https://phish.in/audio/000/012/061/waveform-12061.png","song_ids":[459],"updated_at":"2023-10-27T22:32:41Z"},{"id":17777,"show_id":894,"show_date":"1997-12-03","venue_name":"CoreStates Spectrum","venue_location":"Philadelphia, PA","title":"David Bowie","position":8,"duration":1611024,"jam_starts_at_second":null,"set":"2","set_name":"Set 2","likes_count":30,"slug":"david-bowie","tags":[{"id":4,"name":"Jamcharts","priority":4,"group":"Curated Selections","color":"#888888","notes":"Long intro with teases and a signal. A wonderfully upbeat, major mode movement develops and continues for about 5 1/2 minutes before cycling back to \"Bowie.\" The rub: it takes 18 minutes to get to this departure from standard fare. Unfinished with a fantastic -\u0026gt; to \"Possum.\"","transcript":null,"starts_at_second":null,"ends_at_second":null},{"id":17,"name":"Tease","priority":15,"group":"Song Content","color":"#888888","notes":"Baby Elephant Walk by Henrry Mancini","transcript":null,"starts_at_second":33,"ends_at_second":null},{"id":17,"name":"Tease","priority":15,"group":"Song Content","color":"#888888","notes":"Take Me Out to the Ball Game by Jack Norworth and Albert Von Tilzer","transcript":null,"starts_at_second":5,"ends_at_second":null},{"id":20,"name":"Signal","priority":18,"group":"Song Content","color":"#888888","notes":"Simpsons","transcript":null,"starts_at_second":null,"ends_at_second":null}],"mp3":"https://phish.in/audio/000/017/777/17777.mp3","waveform_image":"https://phish.in/audio/000/017/777/waveform-17777.png","song_ids":[979],"updated_at":"2023-10-27T22:34:14Z"},{"id":15963,"show_id":795,"show_date":"1996-10-18","venue_name":"Civic Arena","venue_location":"Pittsburgh, PA","title":"Maze","position":12,"duration":730279,"jam_starts_at_second":null,"set":"2","set_name":"Set 2","likes_count":14,"slug":"maze","tags":[{"id":4,"name":"Jamcharts","priority":4,"group":"Curated Selections","color":"#888888","notes":"Words do not adequately describe how demented, sick, insane, twisted, tension-filled, and incredibly dissonant this version is. It's a fantastic masterpiece! Go hear it Now! (get the sbd download from the SPAC FTA release on the \"spreadsheet\").","transcript":null,"starts_at_second":null,"ends_at_second":null}],"mp3":"https://phish.in/audio/000/015/963/15963.mp3","waveform_image":"https://phish.in/audio/000/015/963/waveform-15963.png","song_ids":[486],"updated_at":"2023-10-27T22:33:45Z"}]}